^C:\USERS\ADMIN\APPDATA\LOCAL\TEMPORARY PROJECTS\CONSOLEAPPLICATION1\PROPERTIES\RESOURCES.RESX
C:\WINDOWS\ASSEMBLY\PUBPOL6.DAT
C:\WINDOWS\MICROSOFT.NET\ASSEMBLY\GAC_MSIL\MICROSOFT.BUILD.TASKS.V4.0\V4.0_4.0.0.0__B03F5F7F11D50A3A\MICROSOFT.BUILD.TASKS.V4.0.DLL
^C:\USERS\ADMIN\DESKTOP\SGUPTA\CONSOLEAPPLICATION1\CONSOLEAPPLICATION1\PROPERTIES\RESOURCES.RESX
C:\WINDOWS\ASSEMBLY\PUBPOL6.DAT
C:\WINDOWS\MICROSOFT.NET\ASSEMBLY\GAC_MSIL\MICROSOFT.BUILD.TASKS.V4.0\V4.0_4.0.0.0__B03F5F7F11D50A3A\MICROSOFT.BUILD.TASKS.V4.0.DLL
C:\USERS\ADMIN\DESKTOP\SGUPTA\CONSOLEAPPLICATION1\CONSOLEAPPLICATION1\RESOURCES\TEST.PDF
